COP 3330 - Arrays, Pointers, Dynamic Memory

	
	Dealer (5 cards)
	|		|
	|		|
	|		|
	|		|
  Deck(52 cards)      Player (5 cards)

	|
	|
       Card


------------------------------------------
How to build NEW TYPES: 

enum Direction (NORTH, EAST, SOUTH, WEST);

Direction d;

d = NoRTH;

-------------------------------------

1) Tracking Variable on Array
2) Communication from classes to other classes.
3) Understand perfectly, division /, and remainder %

------------------------------------------
POINTERS

int *p, *q, *z;

// 4 Possible values of a pointer.

p = 0; // Null pointer

p = q; //assign a pointer of the same type.

p = list; // assign a pointer of the same type.

void Func(int a[]);
void Func(int *a); // Compiler view them as same type.


p = &x; // address of x, assigned into the pointer.